<svg xmlns="http://www.w3.org/2000/svg" width="38" height="38" viewBox="0 0 38 38">
  <g id="Group_3111" data-name="Group 3111" transform="translate(-334.724 -275.724)">
    <path id="Rectangle_608" data-name="Rectangle 608" d="M0,0H8A10,10,0,0,1,18,10v8a0,0,0,0,1,0,0H10A10,10,0,0,1,0,8V0A0,0,0,0,1,0,0Z" transform="translate(334.724 275.724)" fill="#fff"/>
    <path id="Rectangle_609" data-name="Rectangle 609" d="M0,0H8A10,10,0,0,1,18,10v8a0,0,0,0,1,0,0H10A10,10,0,0,1,0,8V0A0,0,0,0,1,0,0Z" transform="translate(372.724 275.724) rotate(90)" fill="#fff"/>
    <path id="Rectangle_610" data-name="Rectangle 610" d="M0,0H8A10,10,0,0,1,18,10v8a0,0,0,0,1,0,0H10A10,10,0,0,1,0,8V0A0,0,0,0,1,0,0Z" transform="translate(372.724 313.724) rotate(180)" fill="#fff"/>
    <path id="Rectangle_611" data-name="Rectangle 611" d="M0,0H8A10,10,0,0,1,18,10v8a0,0,0,0,1,0,0H10A10,10,0,0,1,0,8V0A0,0,0,0,1,0,0Z" transform="translate(334.724 313.724) rotate(-90)" fill="#fff"/>
  </g>
</svg>
