<svg width="24" height="24" viewBox="0 0 24 24" fill="none" xmlns="http://www.w3.org/2000/svg">
<path d="M8 4L16 12L8 20" stroke="#1C4469" stroke-width="2" stroke-linecap="round" stroke-linejoin="round"/>
</svg>
