<svg xmlns="http://www.w3.org/2000/svg" xmlns:xlink="http://www.w3.org/1999/xlink" width="40.79" height="31.586" viewBox="0 0 40.79 31.586">
  <defs>
    <clipPath id="clip-path">
      <rect id="Rectangle_601" data-name="Rectangle 601" width="40.79" height="31.586" fill="#fff"/>
    </clipPath>
  </defs>
  <g id="Group_3099" data-name="Group 3099" transform="translate(0 0)">
    <g id="Group_3098" data-name="Group 3098" transform="translate(0 0)" clip-path="url(#clip-path)">
      <path id="Path_10000" data-name="Path 10000" d="M9.034,47.226A9.048,9.048,0,0,0,0,56.281v8.233a1.418,1.418,0,0,0,1.425,1.369h15.4a1.228,1.228,0,0,0,.905-.4,1.314,1.314,0,0,0,.339-.968V56.281a9.047,9.047,0,0,0-9.034-9.055" transform="translate(0 -34.297)" fill="#fff"/>
      <path id="Path_10001" data-name="Path 10001" d="M17.377,12.142h0a6.071,6.071,0,1,0-6.071-6.071,6.079,6.079,0,0,0,6.071,6.071" transform="translate(-8.211 0)" fill="#fff"/>
      <path id="Path_10002" data-name="Path 10002" d="M91.171,47.226A9.166,9.166,0,0,0,82,56.281v8.233a1.457,1.457,0,0,0,1.469,1.369H98.89a1.467,1.467,0,0,0,1.01-.4,1.41,1.41,0,0,0,.442-.968V56.281a9.165,9.165,0,0,0-9.171-9.055M97.6,63.146H84.738V56.281a6.434,6.434,0,0,1,12.867,0Z" transform="translate(-59.552 -34.297)" fill="#fff"/>
      <path id="Path_10003" data-name="Path 10003" d="M99.7,12.142h0a6.071,6.071,0,1,0-6.071-6.071A6.079,6.079,0,0,0,99.7,12.142m0-9.4a3.334,3.334,0,1,1-3.334,3.333A3.337,3.337,0,0,1,99.7,2.738" transform="translate(-67.996 0)" fill="#fff"/>
    </g>
  </g>
</svg>
