<svg xmlns="http://www.w3.org/2000/svg" width="30.854" height="20.946" viewBox="0 0 30.854 20.946">
  <g id="email-svgrepo-com" transform="translate(0 -12.089)">
    <path id="Path_9770" data-name="Path 9770" d="M27.085,12.089H3.769A3.773,3.773,0,0,0,0,15.858V29.267a3.773,3.773,0,0,0,3.769,3.769H27.085a3.773,3.773,0,0,0,3.769-3.769V15.858A3.773,3.773,0,0,0,27.085,12.089Zm-1.842,2.459-9.817,6.325L5.61,14.548Zm1.842,16.029H3.769a1.312,1.312,0,0,1-1.31-1.31V15.928l12.21,7.851c.016.01.034.017.051.027l.054.028a1.416,1.416,0,0,0,.292.114l.031.007a1.442,1.442,0,0,0,.331.042h0a1.42,1.42,0,0,0,.331-.042l.031-.007a1.425,1.425,0,0,0,.292-.114l.054-.028c.017-.009.034-.016.051-.027L28.4,15.928V29.267A1.313,1.313,0,0,1,27.085,30.577Z" fill="currentColor"/>
  </g>
</svg>
