<svg xmlns="http://www.w3.org/2000/svg" width="16.333" height="23.794" viewBox="0 0 16.333 23.794">
  <path id="lock-svgrepo-com" d="M74.978,10.255V7.268a7.268,7.268,0,0,0-14.535,0v2.959a1.334,1.334,0,0,0-.9,1.332v4.069a8.167,8.167,0,1,0,16.333,0V11.559A1.332,1.332,0,0,0,74.978,10.255ZM69.263,19a.2.2,0,0,1-.2.246H66.393a.2.2,0,0,1-.2-.246l.427-2.263a1.625,1.625,0,1,1,2.215-.025Zm3.209-8.887H62.949V7.268a4.762,4.762,0,1,1,9.523,0Z" transform="translate(-59.544)" fill="#363636"/>
</svg>
