<svg xmlns="http://www.w3.org/2000/svg" width="45.156" height="33.114" viewBox="0 0 45.156 33.114">
  <g id="stamp-svgrepo-com" transform="translate(0 -7.999)">
    <path id="Path_10007" data-name="Path 10007" d="M45.155,27.567a.749.749,0,0,0-.221-.532,3.507,3.507,0,0,1,0-4.956.752.752,0,0,0,0-1.064,3.507,3.507,0,0,1,0-4.956.752.752,0,0,0,.094-.95l-.555-.835a1.806,1.806,0,0,1,0-2.012l.555-.834a.752.752,0,0,0-.094-.95L42.676,8.22a.75.75,0,0,0-.95-.094l-.835.555a1.838,1.838,0,0,1-2.012,0l-.834-.555a.752.752,0,0,0-.95.094,3.5,3.5,0,0,1-4.956,0,.775.775,0,0,0-1.064,0,3.5,3.5,0,0,1-4.956,0,.775.775,0,0,0-1.064,0,3.5,3.5,0,0,1-4.956,0,.775.775,0,0,0-1.064,0,3.5,3.5,0,0,1-4.956,0,.775.775,0,0,0-1.064,0,3.5,3.5,0,0,1-4.956,0,.752.752,0,0,0-.95-.094l-.834.555a1.839,1.839,0,0,1-2.012,0l-.834-.556a.752.752,0,0,0-.95.094L.22,10.478a.752.752,0,0,0-.094.95l.556.834a1.808,1.808,0,0,1,0,2.012l-.556.834a.752.752,0,0,0,.094.95,3.484,3.484,0,0,1,1.027,2.478A3.481,3.481,0,0,1,.22,21.014a.752.752,0,0,0,0,1.064,3.484,3.484,0,0,1,1.027,2.478A3.481,3.481,0,0,1,.22,27.035a.752.752,0,0,0,0,1.064,3.484,3.484,0,0,1,1.027,2.478A3.481,3.481,0,0,1,.22,33.055a.753.753,0,0,0,.114,1.158,1.8,1.8,0,0,1,.782,1.2,1.8,1.8,0,0,1-.336,1.4l-.63.839a.753.753,0,0,0,.07.984l2.258,2.258a.754.754,0,0,0,.984.069l.84-.63a1.859,1.859,0,0,1,2.6.446.753.753,0,0,0,1.158.114,3.507,3.507,0,0,1,4.956,0,.775.775,0,0,0,1.064,0,3.507,3.507,0,0,1,4.956,0,.775.775,0,0,0,1.064,0,3.507,3.507,0,0,1,4.956,0,.775.775,0,0,0,1.064,0,3.507,3.507,0,0,1,4.956,0,.775.775,0,0,0,1.064,0,3.507,3.507,0,0,1,4.956,0,.753.753,0,0,0,1.158-.114,1.861,1.861,0,0,1,2.6-.446l.839.63a.754.754,0,0,0,.984-.07l2.258-2.258a.753.753,0,0,0,.07-.984l-.63-.838a1.816,1.816,0,0,1,.446-2.6.753.753,0,0,0,.114-1.158,3.507,3.507,0,0,1,0-4.956A.749.749,0,0,0,45.155,27.567Zm-1.747-6.021a5.015,5.015,0,0,0,0,6.021,5.016,5.016,0,0,0-.057,5.943,3.326,3.326,0,0,0-.18,4.205l.238.317-1.334,1.334-.318-.238a3.4,3.4,0,0,0-4.2.18,5.122,5.122,0,0,0-5.944.056,5.015,5.015,0,0,0-6.021,0,5.015,5.015,0,0,0-6.021,0,5.015,5.015,0,0,0-6.021,0A5.124,5.124,0,0,0,7.6,39.309a3.4,3.4,0,0,0-4.2-.18l-.318.239L1.746,38.033l.238-.318A3.288,3.288,0,0,0,2.6,35.163a3.293,3.293,0,0,0-.8-1.653,4.967,4.967,0,0,0,.947-2.933,4.97,4.97,0,0,0-1-3.01,4.97,4.97,0,0,0,1-3.01,4.97,4.97,0,0,0-1-3.01,4.97,4.97,0,0,0,1-3.01A4.973,4.973,0,0,0,1.7,15.462l.236-.354a3.31,3.31,0,0,0,0-3.682l-.214-.321L3.107,9.72l.32.213a3.368,3.368,0,0,0,3.683,0L7.463,9.7a5.012,5.012,0,0,0,6.084.048,5.012,5.012,0,0,0,6.021,0,5.012,5.012,0,0,0,6.021,0,5.012,5.012,0,0,0,6.021,0A5.014,5.014,0,0,0,37.693,9.7l.352.236a3.368,3.368,0,0,0,3.683,0l.321-.214,1.386,1.386-.214.32a3.308,3.308,0,0,0,0,3.683l.236.353a5.019,5.019,0,0,0-.05,6.085Z" transform="translate(0 0)" fill="#fff"/>
    <path id="Path_10008" data-name="Path 10008" d="M41.371,14H6.753A.752.752,0,0,0,6,14.753V37.33a.752.752,0,0,0,.753.753H41.371a.752.752,0,0,0,.753-.753V14.753A.752.752,0,0,0,41.371,14ZM19.546,35.072a4.515,4.515,0,1,1,4.515-4.515A4.52,4.52,0,0,1,19.546,35.072ZM38.188,33.3a2.634,2.634,0,0,1-4.169,0,1.154,1.154,0,0,0-1.852,0A2.633,2.633,0,0,1,28,33.3a1.154,1.154,0,0,0-1.852,0,.753.753,0,1,1-1.158-.961,2.633,2.633,0,0,1,4.169,0,1.154,1.154,0,0,0,1.852,0,2.633,2.633,0,0,1,4.169,0,1.154,1.154,0,0,0,1.852,0,.753.753,0,1,1,1.158.962Zm0-4.515a2.634,2.634,0,0,1-4.169,0,1.154,1.154,0,0,0-1.852,0,2.633,2.633,0,0,1-4.169,0,1.154,1.154,0,0,0-1.852,0,.753.753,0,1,1-1.158-.961,2.633,2.633,0,0,1,4.169,0,1.154,1.154,0,0,0,1.852,0,2.633,2.633,0,0,1,4.169,0,1.154,1.154,0,0,0,1.852,0,.753.753,0,1,1,1.158.962Z" transform="translate(-1.485 -1.485)" fill="#fff"/>
  </g>
</svg>
