<svg id="Group_13" data-name="Group 13" xmlns="http://www.w3.org/2000/svg" width="37" height="37.015" viewBox="0 0 37 37.015">
  <path id="Path_10" data-name="Path 10" d="M190.383,12.42a1.418,1.418,0,0,0-1.42-1.42H180.12a1.418,1.418,0,0,0-1.42,1.42v3.731h11.683Z" transform="translate(-166.041 -11)" fill="#fff"/>
  <path id="Path_11" data-name="Path 11" d="M96.954,120.036l12.431,4.063-.974-7.1H84.274l-.974,7.137,12.778-4.093A1.39,1.39,0,0,1,96.954,120.036Z" transform="translate(-77.845 -108.995)" fill="#fff"/>
  <path id="Path_12" data-name="Path 12" d="M47.514,406.288l-3.5-2.855a5.519,5.519,0,0,0-7.409-.317,2.528,2.528,0,0,1-3.21-.045,5.559,5.559,0,0,0-7.386.211,2.5,2.5,0,0,1-3.368.06,5.511,5.511,0,0,0-7.6.3l-3.436,2.93a1.526,1.526,0,1,0,1.986,2.318s3.58-3.059,3.617-3.1a2.451,2.451,0,0,1,3.421-.166,5.556,5.556,0,0,0,7.477-.128,2.5,2.5,0,0,1,3.33-.1,5.617,5.617,0,0,0,3.542,1.314,5.471,5.471,0,0,0,3.58-1.261,2.475,2.475,0,0,1,3.338.174c.038.038,3.685,3.021,3.685,3.021a1.524,1.524,0,1,0,1.926-2.364Z" transform="translate(-11.073 -372.259)" fill="#fff"/>
  <path id="Path_13" data-name="Path 13" d="M286.593,204.232,276.7,201v12.166a8.667,8.667,0,0,1,3.9,1.646,8.589,8.589,0,0,1,5.1-1.677c.144,0,1.239.083,1.631.159l3.572-7.658-4.2-1.367Z" transform="translate(-256.64 -186.651)" fill="#fff"/>
  <path id="Path_14" data-name="Path 14" d="M52.488,213.349a8.61,8.61,0,0,1,5.279,1.813,8.618,8.618,0,0,1,4.01-1.873V201.1L47.3,205.737l3.617,7.756C51.3,213.425,52.352,213.349,52.488,213.349Z" transform="translate(-44.564 -186.744)" fill="#fff"/>
</svg>
